…
```r
CIDs1_df <- do.call( # do.call feeds in all the arguments (dataframes to be binded together) to the rbind command 
  what = "rbind", # rbind binds all the dataframes together
  args = lapply( # lapply applies its second argument (as.data.frame) to every element of the list in the first argument (result1_ls)
            CIDs1_ls, as.data.frame)) # converts the list of lists to a dataframe




CIDs1_df <- tibble(CIDs1_df)  # converting the dataset into a tibble (from dplyr)
CIDs1_df   # displaying the first few elements of the data
```

```
## # A tibble: 285 × 1
##         CID
##       <int>
##  1  2734161
##  2    61347
##  3   529334
##  4   304622
##  5   118785
##  6 12971008
##  7 11448496
##  8 11424151
##  9 11171745
## 10 11160028
## # … with 275 more rows
```
…
}

similarity_results_tibble
```

```
## # A tibble: 25 × 7
##    Compound_ID InChi                         IsoSMI MW    Heavy…¹ Rotat…² Charge
##    <chr>       <chr>                         <chr>  <chr> <chr>   <chr>   <chr> 
##  1 2734161     InChI=1S/C8H15N2.ClH/c1-3-4-… CCCCN… 174.… 11      3       0     
##  2 61347       InChI=1S/C7H12N2/c1-2-3-5-9-… CCCCN… 124.… 9       3       0     
##  3 529334      InChI=1S/C8H14N2/c1-2-3-4-6-… CCCCC… 138.… 10      4       0     
##  4 304622      InChI=1S/C8H14N2/c1-3-4-6-10… CCCCN… 138.… 10      3       0     
##  5 118785      InChI=1S/C6H10N2/c1-2-4-8-5-… CCCN1… 110.… 8       2       0     
##  6 12971008    InChI=1S/C7H13N2.HI/c1-3-4-9… CCCN1… 252.… 10      2       0     
##  7 11448496    InChI=1S/C8H15N2.HI/c1-3-4-5… CCCCN… 266.… 11      3       0     
##  8 11424151    InChI=1S/C8H15N2.CHNS/c1-3-4… CCCCN… 197.… 13      3       0     
##  9 11171745    InChI=1S/C8H15N2.C2N3/c1-3-4… CCCCN… 205.… 15      3       0     
## 10 11160028    InChI=1S/C7H13N2.BrH/c1-3-4-… CCCN1… 205.… 10      2       0     
## # … with 15 more rows, and abbreviated variable names ¹​Heavy_Atom_Count,
## #   ²​Rotatable_Bond_Count
```
…
}

smarts_results_tibble
```

```
## # A tibble: 25 × 8
##    Compound_ID InChi                 CanSMI MW    IUPAC…¹ Heavy…² Coval…³ Charge
##    <chr>       <chr>                 <chr>  <chr> <chr>   <chr>   <chr>   <chr> 
##  1 121235111   InChI=1S/C7H11N2.C2F… CC[N+… 403.3 bis(tr… 24      2       0     
##  2 132274871   InChI=1S/C14H20N4.2C… C=CN1… 804.6 bis(tr… 48      3       0     
##  3 86657882    InChI=1S/C13H23N2.Br… CCCCC… 287.… 1-ethe… 16      2       0     
##  4 46178576    InChI=1S/C21H39N2.Br… CCCCC… 399.5 1-ethe… 24      2       0     
##  5 139254006   InChI=1S/C9H15N2.HI/… CCCC[… 278.… 1-buty… 12      2       0     
##  6 129853306   InChI=1S/C13H23N2.C2… CCCCC… 487.5 bis(tr… 30      2       0     
##  7 129853221   InChI=1S/C11H19N2.C2… CCCCC… 459.4 bis(tr… 28      2       0     
##  8 129850195   InChI=1S/C21H39N2.C2… CCCCC… 599.7 bis(tr… 38      2       0     
##  9 87560886    InChI=1S/C9H15N2.BrH… CCCC[… 231.… 1-buty… 12      2       0     
## 10 87559770    InChI=1S/C9H15N2.ClH… CCCC[… 186.… 1-buty… 12      2       0     
## # … with 15 more rows, and abbreviated variable names ¹​IUPACName,
## #   ²​Heavy_Atom_Count, ³​Covalent_Unit_Count
```
…
